^C:\USERS\MATHI\DOCUMENTS\UNI\RTG2\ASSIGNMENT1\BUILD\DEPENDENCIES\GLSL_BUILD_TOOLS\SOURCE\GLSL2CPP.CPP
C:\USERS\MATHI\DOCUMENTS\UNI\RTG2\ASSIGNMENT1\FRAMEWORK\UTILS\GLSL2CPP.DIR\DEBUG\VC140.PDB
C:\USERS\MATHI\DOCUMENTS\UNI\RTG2\ASSIGNMENT1\FRAMEWORK\UTILS\GLSL2CPP.DIR\DEBUG\GLSL2CPP.OBJ
