^C:\USERS\MATHI\DOCUMENTS\UNI\RTG2\ASSIGNMENT1\FRAMEWORK\GL_PLATFORM_TOOLS\GL_PLATFORM_TOOLS.DIR\DEBUG\DEFAULTDISPLAYHANDLER.OBJ|C:\USERS\MATHI\DOCUMENTS\UNI\RTG2\ASSIGNMENT1\FRAMEWORK\GL_PLATFORM_TOOLS\GL_PLATFORM_TOOLS.DIR\DEBUG\WIN32GLAPPLICATION.OBJ|C:\USERS\MATHI\DOCUMENTS\UNI\RTG2\ASSIGNMENT1\FRAMEWORK\GL_PLATFORM_TOOLS\GL_PLATFORM_TOOLS.DIR\DEBUG\WIN32GLCONTEXT.OBJ|C:\USERS\MATHI\DOCUMENTS\UNI\RTG2\ASSIGNMENT1\FRAMEWORK\GL_PLATFORM_TOOLS\GL_PLATFORM_TOOLS.DIR\DEBUG\WIN32GLWINDOW.OBJ
C:\WINDOWS\GLOBALIZATION\SORTING\SORTDEFAULT.NLS
C:\USERS\MATHI\DOCUMENTS\UNI\RTG2\ASSIGNMENT1\FRAMEWORK\GL_PLATFORM_TOOLS\GL_PLATFORM_TOOLS.DIR\DEBUG\DEFAULTDISPLAYHANDLER.OBJ
C:\WINDOWS\SYSTEM32\TZRES.DLL
C:\USERS\MATHI\DOCUMENTS\UNI\RTG2\ASSIGNMENT1\FRAMEWORK\GL_PLATFORM_TOOLS\GL_PLATFORM_TOOLS.DIR\DEBUG\WIN32GLAPPLICATION.OBJ
C:\USERS\MATHI\DOCUMENTS\UNI\RTG2\ASSIGNMENT1\FRAMEWORK\GL_PLATFORM_TOOLS\GL_PLATFORM_TOOLS.DIR\DEBUG\WIN32GLCONTEXT.OBJ
C:\USERS\MATHI\DOCUMENTS\UNI\RTG2\ASSIGNMENT1\FRAMEWORK\GL_PLATFORM_TOOLS\GL_PLATFORM_TOOLS.DIR\DEBUG\WIN32GLWINDOW.OBJ
