^C:\USERS\MATHI\DOCUMENTS\UNI\RTG2\ASSIGNMENT1\FRAMEWORK\UTILS\UTILS.DIR\DEBUG\ORBITALNAVIGATOR.OBJ|C:\USERS\MATHI\DOCUMENTS\UNI\RTG2\ASSIGNMENT1\FRAMEWORK\UTILS\UTILS.DIR\DEBUG\PERSPECTIVECAMERA.OBJ
C:\WINDOWS\GLOBALIZATION\SORTING\SORTDEFAULT.NLS
C:\USERS\MATHI\DOCUMENTS\UNI\RTG2\ASSIGNMENT1\FRAMEWORK\UTILS\UTILS.DIR\DEBUG\ORBITALNAVIGATOR.OBJ
C:\WINDOWS\SYSTEM32\TZRES.DLL
C:\USERS\MATHI\DOCUMENTS\UNI\RTG2\ASSIGNMENT1\FRAMEWORK\UTILS\UTILS.DIR\DEBUG\PERSPECTIVECAMERA.OBJ
