^C:\USERS\MATHI\DOCUMENTS\UNI\RTG2\ASSIGNMENT1\FRAMEWORK\UTILS\FS_COLOR.GLSL.CPP
^C:\USERS\MATHI\DOCUMENTS\UNI\RTG2\ASSIGNMENT1\FRAMEWORK\UTILS\FS_LAMBERT.GLSL.CPP
^C:\USERS\MATHI\DOCUMENTS\UNI\RTG2\ASSIGNMENT1\FRAMEWORK\UTILS\VS_FULLSCREEN.GLSL.CPP
^C:\USERS\MATHI\DOCUMENTS\UNI\RTG2\ASSIGNMENT1\FRAMEWORK\UTILS\VS_LAMBERT.GLSL.CPP
^C:\USERS\MATHI\DOCUMENTS\UNI\RTG2\ASSIGNMENT1\FRAMEWORK\UTILS\VS_QUAD.GLSL.CPP
