^C:\USERS\MATHI\DOCUMENTS\UNI\RTG2\ASSIGNMENT1\FRAMEWORK\UTILS\COMMON_SHADERS.DIR\DEBUG\FS_COLOR.GLSL.OBJ|C:\USERS\MATHI\DOCUMENTS\UNI\RTG2\ASSIGNMENT1\FRAMEWORK\UTILS\COMMON_SHADERS.DIR\DEBUG\FS_LAMBERT.GLSL.OBJ|C:\USERS\MATHI\DOCUMENTS\UNI\RTG2\ASSIGNMENT1\FRAMEWORK\UTILS\COMMON_SHADERS.DIR\DEBUG\VS_FULLSCREEN.GLSL.OBJ|C:\USERS\MATHI\DOCUMENTS\UNI\RTG2\ASSIGNMENT1\FRAMEWORK\UTILS\COMMON_SHADERS.DIR\DEBUG\VS_LAMBERT.GLSL.OBJ|C:\USERS\MATHI\DOCUMENTS\UNI\RTG2\ASSIGNMENT1\FRAMEWORK\UTILS\COMMON_SHADERS.DIR\DEBUG\VS_QUAD.GLSL.OBJ
C:\WINDOWS\GLOBALIZATION\SORTING\SORTDEFAULT.NLS
C:\USERS\MATHI\DOCUMENTS\UNI\RTG2\ASSIGNMENT1\FRAMEWORK\UTILS\COMMON_SHADERS.DIR\DEBUG\FS_COLOR.GLSL.OBJ
C:\WINDOWS\SYSTEM32\TZRES.DLL
C:\USERS\MATHI\DOCUMENTS\UNI\RTG2\ASSIGNMENT1\FRAMEWORK\UTILS\COMMON_SHADERS.DIR\DEBUG\FS_LAMBERT.GLSL.OBJ
C:\USERS\MATHI\DOCUMENTS\UNI\RTG2\ASSIGNMENT1\FRAMEWORK\UTILS\COMMON_SHADERS.DIR\DEBUG\VS_FULLSCREEN.GLSL.OBJ
C:\USERS\MATHI\DOCUMENTS\UNI\RTG2\ASSIGNMENT1\FRAMEWORK\UTILS\COMMON_SHADERS.DIR\DEBUG\VS_LAMBERT.GLSL.OBJ
C:\USERS\MATHI\DOCUMENTS\UNI\RTG2\ASSIGNMENT1\FRAMEWORK\UTILS\COMMON_SHADERS.DIR\DEBUG\VS_QUAD.GLSL.OBJ
